task3/sigdelay.vcd
$version Generated by VerilatedVcd $end
$date Thu Nov  3 04:06:21 2022 $end
$timescale 1ps $end

 $scope module TOP $end
  $var wire  1 $ clk $end
  $var wire  8 ( delayed_signal [7:0] $end
  $var wire  1 & en $end
  $var wire  8 # mic_signal [7:0] $end
  $var wire  1 % rst $end
  $var wire  8 ' shift [7:0] $end
  $scope module sigdelay $end
   $var wire 32 + A_WIDTH [31:0] $end
   $var wire 32 + D_WIDTH [31:0] $end
   $var wire  8 ) address [7:0] $end
   $var wire  1 $ clk $end
   $var wire  8 ( delayed_signal [7:0] $end
   $var wire  1 & en $end
   $var wire  8 # mic_signal [7:0] $end
   $var wire  1 % rst $end
   $var wire  8 ' shift [7:0] $end
   $scope module addrCounter $end
    $var wire 32 + WIDTH [31:0] $end
    $var wire  1 $ clk $end
    $var wire  8 ) count [7:0] $end
    $var wire  1 & en $end
    $var wire  8 , incr [7:0] $end
    $var wire  1 % rst $end
   $upscope $end
   $scope module audioRam $end
    $var wire 32 + ADDRESS_WIDTH [31:0] $end
    $var wire 32 + DATA_WIDTH [31:0] $end
    $var wire  1 $ clk $end
    $var wire  8 # din [7:0] $end
    $var wire  8 ( dout [7:0] $end
    $var wire  8 * rd_addr [7:0] $end
    $var wire  1 - rd_enable $end
    $var wire  8 ) wr_addr [7:0] $end
    $var wire  1 - wr_enable $end
   $upscope $end
  $upscope $end
 $upscope $end
$enddefinitions $end


#0
b00000000 #
1$
0%
1&
b01000000 '
b00000000 (
b00000000 )
b11000000 *
b00000000000000000000000000001000 +
b00000001 ,
1-
#1
0$
#2
b01101101 #
1$
b00110011 '
b00000001 )
b11001110 *
#3
0$
#4
b01101111 #
1$
b00000010 )
b11001111 *
#5
0$
#6
b01110001 #
1$
b00000011 )
b11010000 *
#7
0$
#8
b01101110 #
1$
b00000100 )
b11010001 *
#9
0$
#10
b01101111 #
1$
b00000101 )
b11010010 *
#11
0$
#12
b01110000 #
1$
b00000110 )
b11010011 *
#13
0$
#14
b01110001 #
1$
b00000111 )
b11010100 *
#15
0$
#16
b01110000 #
1$
b00001000 )
b11010101 *
#17
0$
#18
1$
b00001001 )
b11010110 *
#19
0$
#20
b01101111 #
1$
b00001010 )
b11010111 *
#21
0$
#22
b01110000 #
1$
b00001011 )
b11011000 *
#23
0$
#24
b01101111 #
1$
b00001100 )
b11011001 *
#25
0$
#26
b01101110 #
1$
b00001101 )
b11011010 *
#27
0$
#28
b01101111 #
1$
b00001110 )
b11011011 *
#29
0$
#30
b01101110 #
1$
b00001111 )
b11011100 *
#31
0$
#32
b01101101 #
1$
b00010000 )
b11011101 *
#33
0$
#34
1$
b00010001 )
b11011110 *
#35
0$
#36
b01101100 #
1$
b00010010 )
b11011111 *
#37
0$
#38
b01101011 #
1$
b00010011 )
b11100000 *
#39
0$
#40
b01101101 #
1$
b00010100 )
b11100001 *
#41
0$
#42
b01101110 #
1$
b00010101 )
b11100010 *
#43
0$
#44
b01101101 #
1$
b00010110 )
b11100011 *
#45
0$
#46
1$
b00010111 )
b11100100 *
#47
0$
#48
1$
b00011000 )
b11100101 *
#49
0$
#50
b01101100 #
1$
b00011001 )
b11100110 *
#51
0$
#52
b01101110 #
1$
b00011010 )
b11100111 *
#53
0$
#54
b01101111 #
1$
b00011011 )
b11101000 *
#55
0$
#56
b01101110 #
1$
b00011100 )
b11101001 *
#57
0$
#58
b01101101 #
1$
b00011101 )
b11101010 *
#59
0$
#60
b01101100 #
1$
b00011110 )
b11101011 *
#61
0$
#62
b01101011 #
1$
b00011111 )
b11101100 *
#63
0$
#64
b01101010 #
1$
b00100000 )
b11101101 *
#65
0$
#66
b01101100 #
1$
b00100001 )
b11101110 *
#67
0$
#68
b01101010 #
1$
b00100010 )
b11101111 *
#69
0$
#70
b01101110 #
1$
b00100011 )
b11110000 *
#71
0$
#72
1$
b00100100 )
b11110001 *
#73
0$
#74
b01101101 #
1$
b00100101 )
b11110010 *
#75
0$
#76
b01110001 #
1$
b00100110 )
b11110011 *
#77
0$
#78
b01110000 #
1$
b00100111 )
b11110100 *
#79
0$
#80
b01101110 #
1$
b00101000 )
b11110101 *
#81
0$
#82
b01101100 #
1$
b00101001 )
b11110110 *
#83
0$
#84
b01101011 #
1$
b00101010 )
b11110111 *
#85
0$
#86
b01101000 #
1$
b00101011 )
b11111000 *
#87
0$
#88
b01101001 #
1$
b00101100 )
b11111001 *
#89
0$
#90
b01101100 #
1$
b00101101 )
b11111010 *
#91
0$
#92
b01101101 #
1$
b00101110 )
b11111011 *
#93
0$
#94
b01101111 #
1$
b00101111 )
b11111100 *
#95
0$
#96
1$
b00110000 )
b11111101 *
#97
0$
#98
b01101101 #
1$
b00110001 )
b11111110 *
#99
0$
#100
b01101001 #
1$
b00110010 )
b11111111 *
#101
0$
#102
b01101011 #
1$
b00110011 )
b00000000 *
#103
0$
#104
b01101000 #
1$
b00110100 )
b00000001 *
#105
0$
#106
b01100111 #
1$
b01101101 (
b00110101 )
b00000010 *
#107
0$
#108
b01101010 #
1$
b01101111 (
b00110110 )
b00000011 *
#109
0$
#110
b01101100 #
1$
b01110001 (
b00110111 )
b00000100 *
#111
0$
#112
b01101111 #
1$
b01101110 (
b00111000 )
b00000101 *
#113
0$
#114
b01101100 #
1$
b01101111 (
b00111001 )
b00000110 *
#115
0$
#116
b01100110 #
1$
b01110000 (
b00111010 )
b00000111 *
#117
0$
#118
b01101000 #
1$
b01110001 (
b00111011 )
b00001000 *
#119
0$
#120
b01101010 #
1$
b01110000 (
b00111100 )
b00001001 *
#121
0$
#122
b01101101 #
1$
b00111101 )
b00001010 *
#123
0$
#124
b01101010 #
1$
b01101111 (
b00111110 )
b00001011 *
#125
0$
#126
1$
b01110000 (
b00111111 )
b00001100 *
#127
0$
#128
b01101001 #
1$
b01101111 (
b01000000 )
b00001101 *
#129
0$
#130
b01101101 #
1$
b01101110 (
b01000001 )
b00001110 *
#131
0$
#132
b01101011 #
1$
b01101111 (
b01000010 )
b00001111 *
#133
0$
#134
b01101100 #
1$
b01101110 (
b01000011 )
b00010000 *
#135
0$
#136
b01101110 #
1$
b01101101 (
b01000100 )
b00010001 *
#137
0$
#138
b01101010 #
1$
b01000101 )
b00010010 *
#139
0$
#140
b01101011 #
1$
b01101100 (
b01000110 )
b00010011 *
#141
0$
#142
b01101010 #
1$
b01101011 (
b01000111 )
b00010100 *
#143
0$
#144
b01101011 #
1$
b01101101 (
b01001000 )
b00010101 *
#145
0$
#146
b01101010 #
1$
b01101110 (
b01001001 )
b00010110 *
#147
0$
#148
b01101101 #
1$
b01101101 (
b01001010 )
b00010111 *
#149
0$
#150
b01101011 #
1$
b01001011 )
b00011000 *
#151
0$
#152
b01101001 #
1$
b01001100 )
b00011001 *
#153
0$
#154
1$
b01101100 (
b01001101 )
b00011010 *
#155
0$
#156
b01101100 #
1$
b01101110 (
b01001110 )
b00011011 *
#157
0$
#158
b01110010 #
1$
b01101111 (
b01001111 )
b00011100 *
#159
0$
#160
b01101011 #
1$
b01101110 (
b01010000 )
b00011101 *
#161
0$
#162
b01101100 #
1$
b01101101 (
b01010001 )
b00011110 *
#163
0$
#164
b01100110 #
1$
b01101100 (
b01010010 )
b00011111 *
#165
0$
#166
b01101000 #
1$
b01101011 (
b01010011 )
b00100000 *
#167
0$
#168
b01101100 #
1$
b01101010 (
b01010100 )
b00100001 *
#169
0$
#170
b01100111 #
1$
b01101100 (
b01010101 )
b00100010 *
#171
0$
#172
b01101001 #
1$
b01101010 (
b01010110 )
b00100011 *
#173
0$
#174
b01101010 #
1$
b01101110 (
b01010111 )
b00100100 *
#175
0$
#176
1$
b01011000 )
b00100101 *
#177
0$
#178
b01101001 #
1$
b01101101 (
b01011001 )
b00100110 *
#179
0$
#180
b01101000 #
1$
b01110001 (
b01011010 )
b00100111 *
#181
0$
#182
b01100111 #
1$
b01110000 (
b01011011 )
b00101000 *
#183
0$
#184
1$
b01101110 (
b01011100 )
b00101001 *
#185
0$
#186
b01101000 #
1$
b01101100 (
b01011101 )
b00101010 *
#187
0$
#188
1$
b01101011 (
b01011110 )
b00101011 *
#189
0$
#190
1$
b01101000 (
b01011111 )
b00101100 *
#191
0$
#192
b01101010 #
1$
b01101001 (
b01100000 )
b00101101 *
#193
0$
#194
b01101011 #
1$
b01101100 (
b01100001 )
b00101110 *
#195
0$
#196
b01101100 #
1$
b01101101 (
b01100010 )
b00101111 *
#197
0$
#198
b01101001 #
1$
b01101111 (
b01100011 )
b00110000 *
#199
0$
#200
b01101010 #
1$
b01100100 )
b00110001 *
#201
0$
#202
b01101100 #
1$
b01101101 (
b01100101 )
b00110010 *
#203
0$
#204
b01100111 #
1$
b01101001 (
b01100110 )
b00110011 *
#205
0$
#206
b01101010 #
1$
b01101011 (
b01100111 )
b00110100 *
#207
0$
#208
1$
b01101000 (
b01101000 )
b00110101 *
#209
0$
#210
b01101000 #
1$
b01100111 (
b01101001 )
b00110110 *
#211
0$
#212
b01101001 #
1$
b01101010 (
b01101010 )
b00110111 *
#213
0$
#214
b01101000 #
1$
b01101100 (
b01101011 )
b00111000 *
#215
0$
#216
b01101001 #
1$
b01101111 (
b01101100 )
b00111001 *
#217
0$
#218
b01100111 #
1$
b01101100 (
b01101101 )
b00111010 *
#219
0$
#220
b01101000 #
1$
b01100110 (
b01101110 )
b00111011 *
#221
0$
#222
b01101100 #
1$
b01101000 (
b01101111 )
b00111100 *
#223
0$
#224
1$
b01101010 (
b01110000 )
b00111101 *
#225
0$
#226
1$
b01101101 (
b01110001 )
b00111110 *
#227
0$
#228
b01101010 #
1$
b01101010 (
b01110010 )
b00111111 *
#229
0$
#230
b01101011 #
1$
b01110011 )
b01000000 *
#231
0$
#232
b01101001 #
1$
b01101001 (
b01110100 )
b01000001 *
#233
0$
#234
b01101000 #
1$
b01101101 (
b01110101 )
b01000010 *
#235
0$
#236
b01101010 #
1$
b01101011 (
b01110110 )
b01000011 *
#237
0$
#238
b01101001 #
1$
b01101100 (
b01110111 )
b01000100 *
#239
0$
#240
b01101000 #
1$
b01101110 (
b01111000 )
b01000101 *
#241
0$
#242
b01100111 #
1$
b01101010 (
b01111001 )
b01000110 *
#243
0$
#244
b01101010 #
1$
b01101011 (
b01111010 )
b01000111 *
#245
0$
#246
b01101100 #
1$
b01101010 (
b01111011 )
b01001000 *
#247
0$
#248
b01101110 #
1$
b01101011 (
b01111100 )
b01001001 *
#249
0$
#250
b01101101 #
1$
b01101010 (
b01111101 )
b01001010 *
#251
0$
#252
b01101100 #
1$
b01101101 (
b01111110 )
b01001011 *
#253
0$
#254
b01101010 #
1$
b01101011 (
b01111111 )
b01001100 *
#255
0$
#256
b01101100 #
1$
b01101001 (
b10000000 )
b01001101 *
#257
0$
#258
b01101011 #
1$
b10000001 )
b01001110 *
#259
0$
#260
b01101010 #
1$
b01101100 (
b10000010 )
b01001111 *
#261
0$
#262
b01101001 #
1$
b01110010 (
b10000011 )
b01010000 *
#263
0$
#264
b01101010 #
1$
b01101011 (
b10000100 )
b01010001 *
#265
0$
#266
b01101101 #
1$
b01101100 (
b10000101 )
b01010010 *
#267
0$
#268
b01101010 #
1$
b01100110 (
b10000110 )
b01010011 *
#269
0$
#270
b01101001 #
1$
b01101000 (
b10000111 )
b01010100 *
#271
0$
#272
b01101010 #
1$
b01101100 (
b10001000 )
b01010101 *
#273
0$
#274
b01100111 #
1$
b01100111 (
b10001001 )
b01010110 *
#275
0$
#276
b01100110 #
1$
b01101001 (
b10001010 )
b01010111 *
#277
0$
#278
b01101010 #
1$
b01101010 (
b10001011 )
b01011000 *
#279
0$
#280
b01101101 #
1$
b10001100 )
b01011001 *
#281
0$
#282
b01101110 #
1$
b01101001 (
b10001101 )
b01011010 *
#283
0$
#284
b01110000 #
1$
b01101000 (
b10001110 )
b01011011 *
#285
0$
#286
b01100111 #
1$
b01100111 (
b10001111 )
b01011100 *
#287
0$
#288
b01101110 #
1$
b10010000 )
b01011101 *
#289
0$
#290
b01101100 #
1$
b01101000 (
b10010001 )
b01011110 *
#291
0$
#292
1$
b10010010 )
b01011111 *
#293
0$
#294
b01101001 #
1$
b10010011 )
b01100000 *
#295
0$
#296
b01100111 #
1$
b01101010 (
b10010100 )
b01100001 *
#297
0$
#298
b01101010 #
1$
b01101011 (
b10010101 )
b01100010 *
#299
0$
#300
b01101001 #
1$
b01101100 (
b10010110 )
b01100011 *
#301
0$
#302
b01101010 #
1$
b01101001 (
b10010111 )
b01100100 *
#303
0$
#304
b01101100 #
1$
b01101010 (
b10011000 )
b01100101 *
#305
0$
#306
b01101001 #
1$
b01101100 (
b10011001 )
b01100110 *
#307
0$
#308
b01100111 #
1$
b01100111 (
b10011010 )
b01100111 *
#309
0$
#310
b01101011 #
1$
b01101010 (
b10011011 )
b01101000 *
#311
0$
#312
b01101010 #
1$
b10011100 )
b01101001 *
#313
0$
#314
b01101100 #
1$
b01101000 (
b10011101 )
b01101010 *
#315
0$
#316
b01101010 #
1$
b01101001 (
b10011110 )
b01101011 *
#317
0$
#318
b01101000 #
1$
b01101000 (
b10011111 )
b01101100 *
#319
0$
#320
b01101101 #
1$
b01101001 (
b10100000 )
b01101101 *
#321
0$
#322
b01101011 #
1$
b01100111 (
b10100001 )
b01101110 *
#323
0$
#324
b01101111 #
1$
b01101000 (
b10100010 )
b01101111 *
#325
0$
#326
b01101100 #
1$
b01101100 (
b10100011 )
b01110000 *
#327
0$
#328
b01101001 #
1$
b10100100 )
b01110001 *
#329
0$
#330
b01101100 #
1$
b10100101 )
b01110010 *
#331
0$
#332
b01101110 #
1$
b01101010 (
b10100110 )
b01110011 *
#333
0$
#334
b01101011 #
1$
b01101011 (
b10100111 )
b01110100 *
#335
0$
#336
1$
b01101001 (
b10101000 )
b01110101 *
#337
0$
#338
b01101010 #
1$
b01101000 (
b10101001 )
b01110110 *
#339
0$
#340
b01101111 #
1$
b01101010 (
b10101010 )
b01110111 *
#341
0$
#342
b01101011 #
1$
b01101001 (
b10101011 )
b01111000 *
#343
0$
#344
b01101100 #
1$
b01101000 (
b10101100 )
b01111001 *
#345
0$
#346
1$
b01100111 (
b10101101 )
b01111010 *
#347
0$
#348
b01101010 #
1$
b01101010 (
b10101110 )
b01111011 *
#349
0$
#350
b01101001 #
1$
b01101100 (
b10101111 )
b01111100 *
#351
0$
#352
1$
b01101110 (
b10110000 )
b01111101 *
#353
0$
#354
b01100111 #
1$
b01101101 (
b10110001 )
b01111110 *
#355
0$
#356
b01101010 #
1$
b01101100 (
b10110010 )
b01111111 *
#357
0$
#358
1$
b01101010 (
b10110011 )
b10000000 *
#359
0$
#360
b01101100 #
1$
b01101100 (
b10110100 )
b10000001 *
#361
0$
#362
b01101011 #
1$
b01101011 (
b10110101 )
b10000010 *
#363
0$
#364
b01101110 #
1$
b01101010 (
b10110110 )
b10000011 *
#365
0$
#366
b01101100 #
1$
b01101001 (
b10110111 )
b10000100 *
#367
0$
#368
1$
b01101010 (
b10111000 )
b10000101 *
#369
0$
#370
b01101011 #
1$
b01101101 (
b10111001 )
b10000110 *
#371
0$
#372
b01101001 #
1$
b01101010 (
b10111010 )
b10000111 *
#373
0$
#374
b01101101 #
1$
b01101001 (
b10111011 )
b10001000 *
#375
0$
#376
1$
b01101010 (
b10111100 )
b10001001 *
#377
0$
#378
b01101100 #
1$
b01100111 (
b10111101 )
b10001010 *
#379
0$
#380
b01101110 #
1$
b01100110 (
b10111110 )
b10001011 *
#381
0$
#382
b01101011 #
1$
b01101010 (
b10111111 )
b10001100 *
#383
0$
#384
b01101100 #
1$
b01101101 (
b11000000 )
b10001101 *
#385
0$
#386
b01101110 #
1$
b01101110 (
b11000001 )
b10001110 *
#387
0$
#388
b01101011 #
1$
b01110000 (
b11000010 )
b10001111 *
#389
0$
#390
b01101010 #
1$
b01100111 (
b11000011 )
b10010000 *
#391
0$
#392
b01101011 #
1$
b01101110 (
b11000100 )
b10010001 *
#393
0$
#394
b01101110 #
1$
b01101100 (
b11000101 )
b10010010 *
#395
0$
#396
b01101100 #
1$
b11000110 )
b10010011 *
#397
0$
#398
1$
b01101001 (
b11000111 )
b10010100 *
#399
0$
#400
b01101110 #
1$
b01100111 (
b11001000 )
b10010101 *
#401
0$
#402
b01110000 #
1$
b01101010 (
b11001001 )
b10010110 *
#403
0$
#404
1$
b01101001 (
b11001010 )
b10010111 *
#405
0$
#406
b01110001 #
1$
b01101010 (
b11001011 )
b10011000 *
#407
0$
#408
b01101110 #
1$
b01101100 (
b11001100 )
b10011001 *
#409
0$
#410
1$
b01101001 (
b11001101 )
b10011010 *
#411
0$
#412
b01101101 #
1$
b01100111 (
b11001110 )
b10011011 *
#413
0$
#414
b01101100 #
1$
b01101011 (
b11001111 )
b10011100 *
#415
0$
#416
1$
b01101010 (
b11010000 )
b10011101 *
#417
0$
#418
b01101111 #
1$
b01101100 (
b11010001 )
b10011110 *
#419
0$
#420
b01101100 #
1$
b01101010 (
b11010010 )
b10011111 *
#421
0$
#422
1$
b01101000 (
b11010011 )
b10100000 *
#423
0$
#424
1$
b01101101 (
b11010100 )
b10100001 *
#425
0$
#426
b01101101 #
1$
b01101011 (
b11010101 )
b10100010 *
#427
0$
#428
b01101011 #
1$
b01101111 (
b11010110 )
b10100011 *
#429
0$
#430
b01110001 #
1$
b01101100 (
b11010111 )
b10100100 *
#431
0$
#432
b01110000 #
1$
b01101001 (
b11011000 )
b10100101 *
#433
0$
#434
b01101101 #
1$
b01101100 (
b11011001 )
b10100110 *
#435
0$
#436
1$
b01101110 (
b11011010 )
b10100111 *
#437
0$
#438
1$
b01101011 (
b11011011 )
b10101000 *
#439
0$
#440
b01101100 #
1$
b11011100 )
b10101001 *
#441
0$
#442
b01101011 #
1$
b01101010 (
b11011101 )
b10101010 *
#443
0$
#444
1$
b01101111 (
b11011110 )
b10101011 *
#445
0$
#446
b01101001 #
1$
b01101011 (
b11011111 )
b10101100 *
#447
0$
#448
b01101011 #
1$
b01101100 (
b11100000 )
b10101101 *
#449
0$
#450
b01101001 #
1$
b11100001 )
b10101110 *
#451
0$
#452
b01101100 #
1$
b01101010 (
b11100010 )
b10101111 *
#453
0$
#454
b01101010 #
1$
b01101001 (
b11100011 )
b10110000 *
#455
0$
#456
b01101111 #
1$
b11100100 )
b10110001 *
#457
0$
#458
b01101101 #
1$
b01100111 (
b11100101 )
b10110010 *
#459
0$
#460
b01101100 #
1$
b01101010 (
b11100110 )
b10110011 *
#461
0$
#462
b01101111 #
1$
b11100111 )
b10110100 *
#463
0$
#464
b01101011 #
1$
b01101100 (
b11101000 )
b10110101 *
#465
0$
#466
1$
b01101011 (
b11101001 )
b10110110 *
#467
0$
#468
b01101010 #
1$
b01101110 (
b11101010 )
b10110111 *
#469
0$
#470
b01101001 #
1$
b01101100 (
b11101011 )
b10111000 *
#471
0$
#472
b01100111 #
1$
b11101100 )
b10111001 *
#473
0$
#474
b01101001 #
1$
b01101011 (
b11101101 )
b10111010 *
#475
0$
#476
b01100111 #
1$
b01101001 (
b11101110 )
b10111011 *
#477
0$
#478
b01101001 #
1$
b01101101 (
b11101111 )
b10111100 *
#479
0$
#480
b01101101 #
1$
b11110000 )
b10111101 *
#481
0$
#482
b01101000 #
1$
b01101100 (
b11110001 )
b10111110 *
#483
0$
#484
b01100111 #
1$
b01101110 (
b11110010 )
b10111111 *
#485
0$
#486
b01101001 #
1$
b01101011 (
b11110011 )
b11000000 *
#487
0$
#488
b01101010 #
1$
b01101100 (
b11110100 )
b11000001 *
#489
0$
#490
1$
b01101110 (
b11110101 )
b11000010 *
#491
0$
#492
1$
b01101011 (
b11110110 )
b11000011 *
#493
0$
#494
1$
b01101010 (
b11110111 )
b11000100 *
#495
0$
#496
b01101001 #
1$
b01101011 (
b11111000 )
b11000101 *
#497
0$
#498
1$
b01101110 (
b11111001 )
b11000110 *
#499
0$
#500
b01101110 #
1$
b01101100 (
b11111010 )
b11000111 *
#501
0$
#502
b01101001 #
1$
b11111011 )
b11001000 *
#503
0$
#504
1$
b01101110 (
b11111100 )
b11001001 *
#505
0$
#506
b01100111 #
1$
b01110000 (
b11111101 )
b11001010 *
#507
0$
#508
1$
b11111110 )
b11001011 *
#509
0$
#510
b01101011 #
1$
b01110001 (
b11111111 )
b11001100 *
#511
0$
#512
b01101001 #
1$
b01101110 (
b00000000 )
b11001101 *
#513
0$
#514
b01101000 #
1$
b00000001 )
b11001110 *
#515
0$
#516
b01101001 #
1$
b01101101 (
b00000010 )
b11001111 *
#517
0$
#518
b01101010 #
1$
b01101100 (
b00000011 )
b11010000 *
#519
0$
#520
b01101100 #
1$
b00000100 )
b11010001 *
#521
0$
#522
b01101011 #
1$
b01101111 (
b00000101 )
b11010010 *
#523
0$
#524
b01101001 #
1$
b01101100 (
b00000110 )
b11010011 *
#525
0$
#526
b01101010 #
1$
b00000111 )
b11010100 *
#527
0$
#528
b01101011 #
1$
b00001000 )
b11010101 *
#529
0$
#530
b01101100 #
1$
b01101101 (
b00001001 )
b11010110 *
#531
0$
#532
b01101011 #
1$
b01101011 (
b00001010 )
b11010111 *
#533
0$
#534
1$
b01110001 (
b00001011 )
b11011000 *
#535
0$
#536
1$
b01110000 (
b00001100 )
b11011001 *
#537
0$
#538
b01101001 #
1$
b01101101 (
b00001101 )
b11011010 *
#539
0$
#540
1$
b00001110 )
b11011011 *
#541
0$
#542
b01100101 #
1$
b00001111 )
b11011100 *
#543
0$
#544
b01101000 #
1$
b01101100 (
b00010000 )
b11011101 *
#545
0$
#546
b01100011 #
1$
b01101011 (
b00010001 )
b11011110 *
#547
0$
#548
b01100111 #
1$
b00010010 )
b11011111 *
#549
0$
#550
1$
b01101001 (
b00010011 )
b11100000 *
#551
0$
#552
1$
b01101011 (
b00010100 )
b11100001 *
#553
0$
#554
b01101011 #
1$
b01101001 (
b00010101 )
b11100010 *
#555
0$
#556
b01101010 #
1$
b01101100 (
b00010110 )
b11100011 *
#557
0$
#558
b01101100 #
1$
b01101010 (
b00010111 )
b11100100 *
#559
0$
#560
b01101111 #
1$
b01101111 (
b00011000 )
b11100101 *
#561
0$
#562
b01101011 #
1$
b01101101 (
b00011001 )
b11100110 *
#563
0$
#564
b01101001 #
1$
b01101100 (
b00011010 )
b11100111 *
#565
0$
#566
b01100111 #
1$
b01101111 (
b00011011 )
b11101000 *
#567
0$
#568
b01101000 #
1$
b01101011 (
b00011100 )
b11101001 *
#569
0$
#570
b01101010 #
1$
b00011101 )
b11101010 *
#571
0$
#572
b01101011 #
1$
b01101010 (
b00011110 )
b11101011 *
#573
0$
#574
b01100100 #
1$
b01101001 (
b00011111 )
b11101100 *
#575
0$
#576
b01101000 #
1$
b01100111 (
b00100000 )
b11101101 *
#577
0$
#578
b01100111 #
1$
b01101001 (
b00100001 )
b11101110 *
#579
0$
#580
b01100101 #
1$
b01100111 (
b00100010 )
b11101111 *
#581
0$
#582
b01100110 #
1$
b01101001 (
b00100011 )
b11110000 *
#583
0$
#584
b01100100 #
1$
b01101101 (
b00100100 )
b11110001 *
#585
0$
#586
b01100110 #
1$
b01101000 (
b00100101 )
b11110010 *
#587
0$
#588
b01101000 #
1$
b01100111 (
b00100110 )
b11110011 *
#589
0$
#590
b01101100 #
1$
b01101001 (
b00100111 )
b11110100 *
#591
0$
#592
b01101000 #
1$
b01101010 (
b00101000 )
b11110101 *
#593
0$
#594
b01101100 #
1$
b00101001 )
b11110110 *
#595
0$
#596
b01101010 #
1$
b00101010 )
b11110111 *
#597
0$
#598
b01100110 #
1$
b00101011 )
b11111000 *
#599
0$
#600
b01101001 #
1$
b01101001 (
b00101100 )
b11111001 *
#601
0$
#602
b01101000 #
1$
b00101101 )
b11111010 *
#603
0$
#604
b01100111 #
1$
b01101110 (
b00101110 )
b11111011 *
#605
0$
#606
b01100100 #
1$
b01101001 (
b00101111 )
b11111100 *
#607
0$
#608
b01101010 #
1$
b00110000 )
b11111101 *
#609
0$
#610
b01101001 #
1$
b01100111 (
b00110001 )
b11111110 *
#611
0$
#612
b01100110 #
1$
b00110010 )
b11111111 *
#613
0$
#614
b01101000 #
1$
b01101011 (
b00110011 )
b00000000 *
#615
0$
#616
b01101001 #
1$
b01101001 (
b00110100 )
b00000001 *
#617
0$
#618
b01101010 #
1$
b01101000 (
b00110101 )
b00000010 *
#619
0$
#620
b01100101 #
1$
b01101001 (
b00110110 )
b00000011 *
#621
0$
#622
b01101100 #
1$
b01101010 (
b00110111 )
b00000100 *
#623
0$
#624
b01101101 #
1$
b01101100 (
b00111000 )
b00000101 *
#625
0$
#626
1$
b01101011 (
b00111001 )
b00000110 *
#627
0$
#628
b01101110 #
1$
b01101001 (
b00111010 )
b00000111 *
#629
0$
#630
b01101011 #
1$
b01101010 (
b00111011 )
b00001000 *
#631
0$
#632
1$
b01101011 (
b00111100 )
b00001001 *
#633
0$
#634
1$
b01101100 (
b00111101 )
b00001010 *
#635
0$
#636
1$
b01101011 (
b00111110 )
b00001011 *
#637
0$
#638
b01101010 #
1$
b00111111 )
b00001100 *
#639
0$
#640
b01100111 #
1$
b01000000 )
b00001101 *
#641
0$
#642
b01100110 #
1$
b01101001 (
b01000001 )
b00001110 *
#643
0$
#644
b01101000 #
1$
b01000010 )
b00001111 *
#645
0$
#646
b01100111 #
1$
b01100101 (
b01000011 )
b00010000 *
#647
0$
#648
b01101001 #
1$
b01101000 (
b01000100 )
b00010001 *
#649
0$
#650
b01100101 #
1$
b01100011 (
b01000101 )
b00010010 *
#651
0$
#652
b01100110 #
1$
b01100111 (
b01000110 )
b00010011 *
#653
0$
#654
b01101010 #
1$
b01000111 )
b00010100 *
#655
0$
#656
b01101001 #
1$
b01001000 )
b00010101 *
#657
0$
#658
b01101000 #
1$
b01101011 (
b01001001 )
b00010110 *
#659
0$
#660
1$
b01101010 (
b01001010 )
b00010111 *
#661
0$
#662
b01101001 #
1$
b01101100 (
b01001011 )
b00011000 *
#663
0$
#664
b01101000 #
1$
b01101111 (
b01001100 )
b00011001 *
#665
0$
#666
b01101001 #
1$
b01101011 (
b01001101 )
b00011010 *
#667
0$
#668
b01100111 #
1$
b01101001 (
b01001110 )
b00011011 *
#669
0$
#670
b01100101 #
1$
b01100111 (
b01001111 )
b00011100 *
#671
0$
#672
b01101010 #
1$
b01101000 (
b01010000 )
b00011101 *
#673
0$
#674
b01101101 #
1$
b01101010 (
b01010001 )
b00011110 *
#675
0$
#676
1$
b01101011 (
b01010010 )
b00011111 *
#677
0$
#678
b01101100 #
1$
b01100100 (
b01010011 )
b00100000 *
#679
0$
#680
b01101000 #
1$
b01101000 (
b01010100 )
b00100001 *
#681
0$
#682
b01101001 #
1$
b01100111 (
b01010101 )
b00100010 *
#683
0$
#684
b01101111 #
1$
b01100101 (
b01010110 )
b00100011 *
#685
0$
#686
b01101101 #
1$
b01100110 (
b01010111 )
b00100100 *
#687
0$
#688
b01101100 #
1$
b01100100 (
b01011000 )
b00100101 *
#689
0$
#690
1$
b01100110 (
b01011001 )
b00100110 *
#691
0$
#692
b01100111 #
1$
b01101000 (
b01011010 )
b00100111 *
#693
0$
#694
b01101001 #
1$
b01101100 (
b01011011 )
b00101000 *
#695
0$
#696
1$
b01101000 (
b01011100 )
b00101001 *
#697
0$
#698
b01101011 #
1$
b01101100 (
b01011101 )
b00101010 *
#699
0$
#700
1$
b01101010 (
b01011110 )
b00101011 *
#701
0$
#702
b01100110 #
1$
b01100110 (
b01011111 )
b00101100 *
#703
0$
#704
b01101001 #
1$
b01101001 (
b01100000 )
b00101101 *
#705
0$
#706
b01101000 #
1$
b01101000 (
b01100001 )
b00101110 *
#707
0$
#708
b01101110 #
1$
b01100111 (
b01100010 )
b00101111 *
#709
0$
#710
b01101111 #
1$
b01100100 (
b01100011 )
b00110000 *
#711
0$
#712
b01101100 #
1$
b01101010 (
b01100100 )
b00110001 *
#713
0$
#714
b01101101 #
1$
b01101001 (
b01100101 )
b00110010 *
#715
0$
#716
b01101010 #
1$
b01100110 (
b01100110 )
b00110011 *
#717
0$
#718
b01101011 #
1$
b01101000 (
b01100111 )
b00110100 *
#719
0$
#720
b01110001 #
1$
b01101001 (
b01101000 )
b00110101 *
#721
0$
#722
b01101100 #
1$
b01101010 (
b01101001 )
b00110110 *
#723
0$
#724
b01101101 #
1$
b01100101 (
b01101010 )
b00110111 *
#725
0$
#726
b01110000 #
1$
b01101100 (
b01101011 )
b00111000 *
#727
0$
#728
b01101000 #
1$
b01101101 (
b01101100 )
b00111001 *
#729
0$
#730
b01101010 #
1$
b01101101 )
b00111010 *
#731
0$
#732
b01101011 #
1$
b01101110 (
b01101110 )
b00111011 *
#733
0$
#734
b01101101 #
1$
b01101011 (
b01101111 )
b00111100 *
#735
0$
#736
b01101100 #
1$
b01110000 )
b00111101 *
#737
0$
#738
1$
b01110001 )
b00111110 *
#739
0$
#740
1$
b01110010 )
b00111111 *
#741
0$
#742
b01101110 #
1$
b01101010 (
b01110011 )
b01000000 *
#743
0$
#744
b01110001 #
1$
b01100111 (
b01110100 )
b01000001 *
#745
0$
#746
b01110010 #
1$
b01100110 (
b01110101 )
b01000010 *
#747
0$
#748
b01101100 #
1$
b01101000 (
b01110110 )
b01000011 *
#749
0$
#750
b01101101 #
1$
b01100111 (
b01110111 )
b01000100 *
#751
0$
#752
b01101111 #
1$
b01101001 (
b01111000 )
b01000101 *
#753
0$
#754
1$
b01100101 (
b01111001 )
b01000110 *
#755
0$
#756
b01101100 #
1$
b01100110 (
b01111010 )
b01000111 *
#757
0$
#758
b01101001 #
1$
b01101010 (
b01111011 )
b01001000 *
#759
0$
#760
b01101010 #
1$
b01101001 (
b01111100 )
b01001001 *
#761
0$
#762
1$
b01101000 (
b01111101 )
b01001010 *
#763
0$
#764
b01101001 #
1$
b01111110 )
b01001011 *
